{
  "schema": {
    "scope": "com.example.yanaka.ha.zonbi4",
    "version": "1.0",
    "settings": [
      {
        "key": "description",
        "displayName": "Provides a minimal segment, which speaks 'Hello World!'\n\n<Voice commands>\nThis segment is limited to be started up with the following voice commands.\n - Start sample hello\n - Check sample hello\n\n<Contact us>\nhttps://www.sony.com",
        "layout": "description"
      }
    ]
  }
}
